Project 2â€“Modeling
…
Residual standard error: 8.311 on 69 degrees of freedom
Multiple R-squared:  0.4756,    Adjusted R-squared:  0.4604 
F-statistic: 31.29 on 2 and 69 DF,  p-value: 2.125e-10

ANSWER: The intercept is the base value you are adding to for Height, and for every increase of Height0 by 1 cm Height5 is thought to be 1.15 cm larger, and if the seedling is not put in fertilizer it is on average 14.71 cm shorter than it otherwise would be.

Use get_regression_points() to extract the fitted values and residuals from the model. Based on this information and other summary measures, do you think this model would do a good job of predicting the heights of other spruce seedlings grown under the same conditions? Explain.

get_regression_points(spr_lm)

# A tibble: 72 x 6
      ID Height5 Height0 Fertilizer Height5_hat residual
   <int>   <dbl>   <dbl> <fct>            <dbl>    <dbl>
 1     1    60      15   F                 53.4     6.65
 2     2    45.2     9   F                 46.4    -1.23
 3     3    42      12   F                 49.9    -7.89
 4     4    49.5    13.7 F                 51.8    -2.35
 5     5    47.3    12   F                 49.9    -2.59
 6     6    56.4    12   F                 49.9     6.51
 7     7    43.5    16.8 NF                40.7     2.77
 8     8    49.2    14.6 NF                38.2    11.0 
 9     9    54      16   NF                39.8    14.2 
10    10    45      15.4 NF                39.1     5.89
# â€¦ with 62 more rows
…
